Plotting recent house price trends with R · Len Kiefer
…
df3<-read_excel("data/msas_new.xls", 
                sheet = "MSA Indices M-Z",
                range="B6:FM516" )
df3$date<-seq.Date(as.Date("1975-01-01"),as.Date("2017-06-01"),by="1 month")

###############################################################################
#### merge data and compute 12-month % change
###############################################################################

df4<-left_join(df2,df3,by="date")
df.metro <- df4 %>% gather(geo,hpi,-date) %>% mutate(type="metro")
df.metro

## # A tibble: 194,820 x 4
##          date         geo      hpi  type
##        <date>       <chr>    <dbl> <chr>
##  1 1975-01-01 Abilene, TX 44.61498 metro
##  2 1975-02-01 Abilene, TX 45.06790 metro
##  3 1975-03-01 Abilene, TX 45.86827 metro
##  4 1975-04-01 Abilene, TX 47.03022 metro
##  5 1975-05-01 Abilene, TX 47.38393 metro
##  6 1975-06-01 Abilene, TX 46.81175 metro
##  7 1975-07-01 Abilene, TX 46.41641 metro
##  8 1975-08-01 Abilene, TX 46.35436 metro
##  9 1975-09-01 Abilene, TX 46.44499 metro
## 10 1975-10-01 Abilene, TX 46.57779 metro
## # ... with 194,810 more rows
…
