Text Mining Fedspeak · Len Kiefer
…
Now we’re about ready to rock!

 Data Note We still have a lot of filler like Letters of Transmittal, appendices with acronyms and other superfluous material. Unfortunately removing them requires examination of the document (front matter is different length in different reports). For today, we’ll ignore this and save more careful wrangling for future.  

Text mining

Now we can begin to apply the tidytext mining technqiues outlined in Text Mining with R. I took these data and walked pretty much step by step through the book and learned a lot. Let me share some highlights.

fed_text <- 
  fed_text_raw %>% 
  as_tibble() %>%
  unnest_tokens(word,text)
fed_text

## # A tibble: 30,264 x 3
##    report    line word       
##    <chr>    <int> <chr>      
##  1 July2018     1 letter     
##  2 July2018     1 of         
##  3 July2018     1 transmittal
##  4 July2018     2 board      
##  5 July2018     2 of         
##  6 July2018     2 governors  
##  7 July2018     2 of         
##  8 July2018     2 the        
##  9 July2018     3 federal    
## 10 July2018     3 reserve    
## # ... with 30,254 more rows

Let’s count up words:

fed_text  %>%
  count(word, sort = TRUE) 

## # A tibble: 3,030 x 2
##    word        n
##    <chr>   <int>
##  1 the      2036
##  2 of       1174
##  3 in        778
##  4 and       725
##  5 to        525
##  6 for       407
##  7 rate      309
##  8 a         287
##  9 federal   268
## 10 on        230
## # ... with 3,020 more rows

Oops! We have a lot of common words like “the”,“of”,and “in”. In text mining these words are called “stop words”. We can remove them by using anit-join and the stop_words list that comes in tidytext package.

fed_text  %>%
  anti_join(stop_words)%>%
  count(word, sort = TRUE) 

## Joining, by = "word"

## # A tibble: 2,653 x 2
##    word            n
##    <chr>       <int>
##  1 rate          309
##  2 federal       268
##  3 2018          229
##  4 policy        206
##  5 percent       188
##  6 projections   168
##  7 economic      161
##  8 2             157
##  9 inflation     154
## 10 monetary      141
## # ... with 2,643 more rows
…
Let’s drop numbers from the text. In older reports, they liked to use fractions with special characters, so we’ll take a heavy-handed approach and only keep alphabetic characters.

fed_text2 <- 
  fed_text %>% 
  mutate(word = gsub("[^A-Za-z ]","",word)) %>%
  filter(word != "")

fed_text2  %>%
  anti_join(stop_words)%>%
  count(word, sort = TRUE) 

## Joining, by = "word"

## # A tibble: 2,323 x 2
##    word             n
##    <chr>        <int>
##  1 rate           309
##  2 federal        268
##  3 policy         206
##  4 percent        188
##  5 projections    168
##  6 economic       161
##  7 inflation      155
##  8 monetary       141
##  9 funds          132
## 10 participants   129
## # ... with 2,313 more rows

What’s the overall sentiment of the report? Text mining allows us to try to score text, or portions of text for sentiment. We can apply one of the sentiments datasets supplied by tidytext to score the report. For right now we’ll use the bing library based on Bing Liu and collaborators

Let’s see what the most frequently used negative and positive words are based on the bing lexicon.

fed_text2 %>%
  inner_join(get_sentiments("bing")) %>%
    count(word, sentiment, sort = TRUE)

## Joining, by = "word"

## # A tibble: 239 x 3
##    word        sentiment     n
##    <chr>       <chr>     <int>
##  1 risks       negative     50
##  2 appropriate positive     39
##  3 confidence  positive     37
##  4 debt        negative     26
##  5 strong      positive     25
##  6 balanced    positive     24
##  7 gross       negative     24
##  8 decline     negative     23
##  9 errors      negative     23
## 10 well        positive     23
## # ... with 229 more rows
…
Also, “gross” is probably associated with “Gross Domestic Product” rather than expressions of disgust. Let’s investigate.

ewww gross! exploring with bigrams

We can apply tidytext principles to single words, like above. But we can also apply them to consecutive sequences of words, called n-grams. Two words together are called bigrams.

fed_bigrams <-   
  fed_text_raw %>%
  unnest_tokens(bigram, text, token = "ngrams", n = 2) %>%
  as_tibble()

fed_bigrams

## # A tibble: 27,533 x 3
##    report    line bigram         
##    <chr>    <int> <chr>          
##  1 July2018     1 letter of      
##  2 July2018     1 of transmittal 
##  3 July2018     2 board of       
##  4 July2018     2 of governors   
##  5 July2018     2 governors of   
##  6 July2018     2 of the         
##  7 July2018     3 federal reserve
##  8 July2018     3 reserve system 
##  9 July2018     4 washington d.c 
## 10 July2018     4 d.c july       
## # ... with 27,523 more rows

Now we can count up bigrams:

fed_bigrams %>%
  count(bigram, sort = TRUE)

## # A tibble: 13,458 x 2
##    bigram              n
##    <chr>           <int>
##  1 <NA>              603
##  2 of the            308
##  3 in the            259
##  4 the federal       171
##  5 monetary policy   115
##  6 federal funds     109
##  7 funds rate        106
##  8 for the           100
##  9 federal reserve    79
## 10 to the             76
## # ... with 13,448 more rows
As Silge and Robinson point out, many of these bigrams are uninteresing. Let’s filter out uninteresing bigrams that contain stop words.

bigrams_separated <- fed_bigrams %>%
  separate(bigram, c("word1", "word2"), sep = " ")

bigrams_filtered <- bigrams_separated %>%
  filter(!word1 %in% stop_words$word) %>%
  filter(!word2 %in% stop_words$word)

bigram_counts <- bigrams_filtered %>% 
  count(word1, word2, sort = TRUE)

bigram_counts

## # A tibble: 4,662 x 3
##    word1        word2       n
##    <chr>        <chr>   <int>
##  1 <NA>         <NA>      603
##  2 monetary     policy    115
##  3 federal      funds     109
##  4 funds        rate      106
##  5 federal      reserve    79
##  6 2            percent    46
##  7 unemployment rate       46
##  8 labor        force      43
##  9 target       range      40
## 10 prime        age        36
## # ... with 4,652 more rows

# unite them

bigrams_united <- bigrams_filtered %>%
  unite(bigram, word1, word2, sep = " ") 

bigrams_united

## # A tibble: 9,366 x 3
##    report    line bigram         
##    <chr>    <int> <chr>          
##  1 July2018     3 federal reserve
##  2 July2018     3 reserve system 
##  3 July2018     4 washington d.c 
##  4 July2018     4 d.c july       
##  5 July2018     4 july 13        
##  6 July2018     4 13 2018        
##  7 July2018     7 monetary policy
##  8 July2018     7 policy report  
##  9 July2018     7 report pursuant
## 10 July2018     8 section 2b     
## # ... with 9,356 more rows
…
