Maybe the Linear Probability Model isn't all bad · Len Kiefer
…
We’ve stacked up estimates across 100 trials for ols (estimate) and trimmed ols (estimate1). Let’s summarize:

  reg.tab<-
    reg.out %>% group_by(N,beta_hat,term) %>% 
    summarize(ols.mean=mean(estimate),
              trimmed.ols.mean=mean(estimate1),
              ols.median= median(estimate),
              ols.trim.median = median(estimate1),
              N.trim=mean(N.trim))

(reg.tab %>% filter(term=="x") %>% mutate_if(is.numeric,round,3))

## # A tibble: 63 x 8
## # Groups:   N, beta_hat [63]
##        N beta_hat term  ols.mean trimmed.ols.mean ols.median ols.trim.median
##    <dbl>    <dbl> <chr>    <dbl>            <dbl>      <dbl>           <dbl>
##  1    25     -1   x       -0.398           -0.618     -0.388          -0.606
##  2    25     -0.9 x       -0.388           -0.59      -0.376          -0.582
##  3    25     -0.8 x       -0.389           -0.571     -0.377          -0.554
##  4    25     -0.7 x       -0.385           -0.555     -0.38           -0.546
##  5    25     -0.6 x       -0.363           -0.517     -0.363          -0.516
##  6    25     -0.5 x       -0.349           -0.478     -0.348          -0.472
##  7    25     -0.4 x       -0.306           -0.392     -0.309          -0.386
##  8    25     -0.3 x       -0.277           -0.331     -0.286          -0.321
##  9    25     -0.2 x       -0.195           -0.208     -0.205          -0.213
## 10    25     -0.1 x       -0.1             -0.08      -0.11           -0.084
## # ... with 53 more rows, and 1 more variable: N.trim <dbl>
…
