Beige-ian Statistics · Len Kiefer
…
bigrams_filtered <- bigrams_separated %>%
  filter(!word1 %in% stop_words$word) %>%
  filter(!word2 %in% stop_words$word)

bigram_counts <- bigrams_filtered %>% 
  count(word1, word2, sort = TRUE)

# terms associatd with shortgages----

# second word shortage
bigrams_filtered %>%
  filter(word2 == "shortages") %>%
  count( word1, sort = TRUE)

## # A tibble: 91 x 2
##    word1          n
##    <chr>      <int>
##  1 labor        195
##  2 worker        22
##  3 inventory     18
##  4 driver        17
##  5 supply        17
##  6 reported      11
##  7 noted          9
##  8 report         9
##  9 continued      6
## 10 experience     5
## # ... with 81 more rows

# first word shortage
bigrams_filtered %>%
  filter(word1 == "shortages") %>%
  count( word2, sort = TRUE)

## # A tibble: 60 x 2
##    word2          n
##    <chr>      <int>
##  1 continued     12
##  2 persisted      5
##  3 increases      4
##  4 resulting      4
##  5 contacts       3
##  6 persist        3
##  7 remained       3
##  8 retail         3
##  9 affect         2
## 10 businesses     2
## # ... with 50 more rows
…
